{
  "playlists" : {
    "href" : "https://api.spotify.com/v1/browse/categories/party/playlists?country=BR&offset=0&limit=2",
    "items" : [ {
      "collaborative" : false,
      "description" : "Chegou o grande dia, aperte o play e partiu fim de semana!",
      "external_urls" : {
        "spotify" : "https://open.spotify.com/playlist/37i9dQZF1DX8mBRYewE6or"
      },
      "href" : "https://api.spotify.com/v1/playlists/37i9dQZF1DX8mBRYewE6or",
      "id" : "37i9dQZF1DX8mBRYewE6or",
      "images" : [ {
        "height" : 300,
        "url" : "https://i.scdn.co/image/ab67706f00000002206a95fa5badbe1d33b65e14",
        "width" : 300
      } ],
      "name" : "Sexta",
      "owner" : {
        "display_name" : "Spotify",
        "external_urls" : {
          "spotify" : "https://open.spotify.com/user/spotify"
        },
        "href" : "https://api.spotify.com/v1/users/spotify",
        "id" : "spotify",
        "type" : "user",
        "uri" : "spotify:user:spotify"
      },
      "primary_color" : null,
      "public" : null,
      "snapshot_id" : "MTU3NDM1NjI0MiwwMDAwMDAwMGQ0MWQ4Y2Q5OGYwMGIyMDRlOTgwMDk5OGVjZjg0Mjdl",
      "tracks" : {
        "href" : "https://api.spotify.com/v1/playlists/37i9dQZF1DX8mBRYewE6or/tracks",
        "total" : 62
      },
      "type" : "playlist",
      "uri" : "spotify:playlist:37i9dQZF1DX8mBRYewE6or"
    }, {
      "collaborative" : false,
      "description" : "O batidão dos funks mais bombados pra agitar a pista do seu baile! [Conteúdo explícito]",
      "external_urls" : {
        "spotify" : "https://open.spotify.com/playlist/37i9dQZF1DWWmaszSfZpom"
      },
      "href" : "https://api.spotify.com/v1/playlists/37i9dQZF1DWWmaszSfZpom",
      "id" : "37i9dQZF1DWWmaszSfZpom",
      "images" : [ {
        "height" : 300,
        "url" : "https://pl.scdn.co/images/pl/default/68fae5be6747e445c6bb34655c2bc2a77b9d1439",
        "width" : 300
      } ],
      "name" : "Segue o Baile",
      "owner" : {
        "display_name" : "Spotify",
        "external_urls" : {
          "spotify" : "https://open.spotify.com/user/spotify"
        },
        "href" : "https://api.spotify.com/v1/users/spotify",
        "id" : "spotify",
        "type" : "user",
        "uri" : "spotify:user:spotify"
      },
      "primary_color" : null,
      "public" : null,
      "snapshot_id" : "MTU3MzEyOTM2OCwwMDAwMDA5MDAwMDAwMTZlNDVkMTM0MmMwMDAwMDE2ZGNjMTY1NTFh",
      "tracks" : {
        "href" : "https://api.spotify.com/v1/playlists/37i9dQZF1DWWmaszSfZpom/tracks",
        "total" : 67
      },
      "type" : "playlist",
      "uri" : "spotify:playlist:37i9dQZF1DWWmaszSfZpom"
    } ],
    "limit" : 2,
    "next" : "https://api.spotify.com/v1/browse/categories/party/playlists?country=BR&offset=2&limit=2",
    "offset" : 0,
    "previous" : null,
    "total" : 37
  }
}